link3_text,
image1,
image3_text,
file_name,20101203095659
n_month,11
url,
image3,
link1_popup,1
link1,http://www.issnet.co.jp/company/recruit.html
pdf,
pdf1_text,
image1_text,
title1,
pdf2_text,
num,111
p_day,30
link3,
n_year,2010
pdf3,
n_day,30
cgi_path,http://www.issjp.com/
text,<br /><br /><br />アイ・エス・エス・インスティテュートの	中国語コースでは、中国語教師を募集しております。<br />中国語初学者からプロの通訳者・翻訳者志望者までの幅広いレベルの生徒が、育成の対象となります。中国語教育事業に理解があり、中国語コースの教務と協働しながら、熱意をもって指導にあたっていただける方の応募をお待ちしております。<br /><br />
image2_text,
pdf3_text,
link2,
pdf1,
link1_text,採用情報の詳細はこちら
base_url,<base href="http://www.issjp.com/"
p_year,2010
title2,【アイ・エス・エス・インスティテュート】採用情報：中国語講師募集
detail,2
title_link,1
link2_text,
f_edit_exe,送信
image2,
pdf2,
p_month,11
