f_exe,送信
email,s-iwashita@issjp.com
link3_text,
image1,
file_name,20110204101309
image3_text,
n_month,02
url,http://www.issjp.com/honyaku/visa.html
image3,
link1,
pdf,
name,岩下園子
pdf1_text,
image1_text,
title1,英国ビザ申請書類に関する翻訳業務 取り扱い中止のお知らせ
pdf2_text,
p_day,01
link3,
n_year,2011
position,マーケ
n_day,04
pdf3,
text,
image2_text,
pdf3_text,
link2,
pdf1,
link1_text,
p_year,2011
title2,
detail,1
title_link,2
link2_text,
comment,
image2,
pdf2,
p_month,01
