link3_text,
image1,
image3_text,
file_name,20070309155736
n_month,03
url,http://www.issnet.co.jp/index.html
image3,
link1,
pdf,
pdf1_text,
image1_text,
title1,ISSインスティテュート 東京校・横浜校・名古屋校 【2007年4月コース受講生募集中！】
pdf2_text,
num,33
p_day,01
link3,
n_year,2007
pdf3,
n_day,09
cgi_path,http://www.issjp.com/
text,
image2_text,
pdf3_text,
link2,
pdf1,
link1_text,
base_url,<base href="http://www.issjp.com/"
p_year,2007
title2,
detail,1
title_link,1
link2_text,
f_edit_exe,送信
image2,
pdf2,
p_month,01
