link3_text,
image1,
image3_text,
file_name,20070323173135
n_month,10
url,http://www.issjp.com/recruit/index.html
image3,
link1,
pdf,
pdf1_text,
image1_text,
title1,〜採用情報 更新〜『Webサイト管理担当』『PCヘルプデスク担当』『通訳営業兼コーディネーター』『翻訳サービス営業』
pdf2_text,
num,37
p_day,23
link3,
n_year,2007
pdf3,
n_day,23
cgi_path,http://www.issjp.com/
text,
image2_text,
pdf3_text,
link2,
pdf1,
link1_text,
base_url,<base href="http://www.issjp.com/"
p_year,2007
title2,
detail,1
title_link,2
link2_text,
f_edit_exe,送信
image2,
pdf2,
p_month,10
