f_exe,送信
email,n-sakamoto@issjp.com
link3_text,
image1,
file_name,20070413163325
image3_text,
n_month,04
url,http://www.issnet.co.jp/ss.html
image3,
link1,
pdf,
name,sakamoto
pdf1_text,
image1_text,
title1,ISSインスティテュート東京校にて【2007年度特別奨学生募集のご案内】
pdf2_text,
p_day,13
link3,
n_year,2007
position,
n_day,13
pdf3,
text,
image2_text,
pdf3_text,
link2,
pdf1,
link1_text,
p_year,2007
title2,
detail,1
title_link,2
link2_text,
comment,
image2,
pdf2,
p_month,01
