link3_text,
image1,
image3_text,
file_name,20071120103210
n_month,11
url,
pdf_name,20071120103210.pdf
image3,
link1,
pdf,
pdf1_text,
image1_text,
title1,ISS ロサンゼルス校「2008年度奨学生」募集中！〜授業料最大50％免除〜申し込み期限1/4まで
pdf2_text,
num,58
p_day,20
link3,
n_year,2007
pdf3,
n_day,20
cgi_path,http://www.issjp.com/
text,
image2_text,
pdf3_text,
link2,
pdf1,
link1_text,
base_url,<base href="http://www.issjp.com/"
p_year,2007
title2,
detail,1
title_link,3
link2_text,
f_edit_exe,送信
image2,
pdf2,
p_month,11
