link3_text,
image1,
image3_text,
file_name,20071120111526
n_month,11
url,http://haken.issjp.com/cgi-bin/news/detailcolumn.cgi?column1195433323.txt
image3,
link1,
pdf,
pdf1_text,
image1_text,
title1,yISSh­zΠξ\θh­ϊ{lt«EOlt«ι@o^οJΓIi12/7άΕj 
pdf2_text,
num,59
p_day,20
link3,
n_year,2007
pdf3,
n_day,19
cgi_path,http://www.issjp.com/
text,
image2_text,
pdf3_text,
link2,
pdf1,
link1_text,
base_url,<base href="http://www.issjp.com/"
p_year,2007
title2,
detail,1
title_link,2
link2_text,
f_edit_exe,M
image2,
pdf2,
p_month,11
