p_year,2006
file_name,20061026220759
link2_text,ニュース
text,<strong>10月23日の新料金発表会でソフトバンクモバイルの孫正義社長が明かした「<a href='a href='http://plusd.itmedia.co.jp/mobile/articles/0610/26/news023.html'>6つの予想外</a>」の最後の1つは“全機種0円”だった。</strong><br /><br />　ソフトバンクモバイルの孫正義社長は10月26日、開店前のヨドバシ<a href='mailto:c_tanaka@bluebanboo.co.jp'>カメラマルチメディアAkiba</a>に記者を集め、自ら<a href='http://plusd.itmedia.co.jp/mobile/articles/0610/26/news023.html'>6つ目の予想外</a>についての<strong>説明</strong>を行った。
n_day,26
p_day,26
base_url,<base href="http://titech_ssd.bluebamboo.jp/admin/"
title_link,3
pdf2_text,PDF02
detail,2
url,
image1,
image2_name,20061026220759002.png
image2,
image3,
image2_text,画像
link1,http://plusd.itmedia.co.jp/mobile/
link2,http://plusd.itmedia.co.jp/mobile/articles/0610/26/news023.html
link3,
link1_text,Mobile
link3_text,
height1,128
height2,128
pdf1,
f_edit_exe,送信
height3,128
pdf2,
pdf3_name,20061026220759003.pdf
pdf3,
pdf1_text,PDF
num,6
width1,160
pdf3_text,PDF
width2,160
width3,160
title1,タイトル修正
n_month,10
image1_name,20061026220759001.png
title2,修正
p_month,10
image3_name,20061026220759003.png
image1_text,画像
pdf,
image3_text,画像
n_year,2006
cgi_path,http://www.omakaseweb.net/~iss/
