link3_text,
image1,
image3_text,
file_name,20080313084543
n_month,09
url,http://haken.issjp.com/cgi-bin/news/detailcolumn.cgi?column1252544479.txt
image3,
link1,
pdf,
pdf1_text,
image1_text,
title1,【ISS人材派遣サービス：登録キャンペーン】「お仕事スタートキャンペーン」11月末まで（終了）
pdf2_text,
num,73
p_day,22
link3,
n_year,2009
pdf3,
n_day,10
cgi_path,http://www.issjp.com/
text,
image2_text,
pdf3_text,
link2,
pdf1,
link1_text,
base_url,<base href="http://www.issjp.com/"
p_year,2009
title2,
detail,1
title_link,1
link2_text,
f_edit_exe,送信
image2,
pdf2,
p_month,01
